<?xml version="1.0" encoding="UTF-8" standalone="no"?>
<!-- Created with Inkscape (http://www.inkscape.org/) -->

<svg
   xmlns:dc="http://purl.org/dc/elements/1.1/"
   xmlns:cc="http://creativecommons.org/ns#"
   xmlns:rdf="http://www.w3.org/1999/02/22-rdf-syntax-ns#"
   xmlns:svg="http://www.w3.org/2000/svg"
   xmlns="http://www.w3.org/2000/svg"
   xmlns:xlink="http://www.w3.org/1999/xlink"
   xmlns:sodipodi="http://sodipodi.sourceforge.net/DTD/sodipodi-0.dtd"
   xmlns:inkscape="http://www.inkscape.org/namespaces/inkscape"
   width="250"
   height="250"
   id="svg2"
   version="1.1"
   inkscape:version="0.47 r22583"
   sodipodi:docname="qemu-pause1.svg"
   inkscape:export-filename="/home/georgesk/developpement/freeduc-usb/freeduc-usb-1.0/images/qemu-pause1.png"
   inkscape:export-xdpi="23.040001"
   inkscape:export-ydpi="23.040001">
  <defs
     id="defs4">
    <linearGradient
       id="linearGradient3590">
      <stop
         style="stop-color:#ffffff;stop-opacity:1;"
         offset="0"
         id="stop3592" />
      <stop
         style="stop-color:#d4b600;stop-opacity:1;"
         offset="1"
         id="stop3594" />
    </linearGradient>
    <inkscape:perspective
       sodipodi:type="inkscape:persp3d"
       inkscape:vp_x="0 : 526.18109 : 1"
       inkscape:vp_y="0 : 1000 : 0"
       inkscape:vp_z="744.09448 : 526.18109 : 1"
       inkscape:persp3d-origin="372.04724 : 350.78739 : 1"
       id="perspective10" />
    <radialGradient
       inkscape:collect="always"
       xlink:href="#linearGradient3590"
       id="radialGradient3596"
       cx="373.18369"
       cy="464.77036"
       fx="373.18369"
       fy="464.77036"
       r="135.71428"
       gradientTransform="matrix(1,0,0,0.97894745,0,11.237658)"
       gradientUnits="userSpaceOnUse" />
    <filter
       inkscape:collect="always"
       id="filter3671"
       x="-0.46196231"
       width="1.9239246"
       y="-0.1083222"
       height="1.2166444"
       color-interpolation-filters="sRGB">
      <feGaussianBlur
         inkscape:collect="always"
         stdDeviation="6.6109096"
         id="feGaussianBlur3673" />
    </filter>
    <inkscape:perspective
       id="perspective3683"
       inkscape:persp3d-origin="0.5 : 0.33333333 : 1"
       inkscape:vp_z="1 : 0.5 : 1"
       inkscape:vp_y="0 : 1000 : 0"
       inkscape:vp_x="0 : 0.5 : 1"
       sodipodi:type="inkscape:persp3d" />
    <inkscape:perspective
       id="perspective3719"
       inkscape:persp3d-origin="0.5 : 0.33333333 : 1"
       inkscape:vp_z="1 : 0.5 : 1"
       inkscape:vp_y="0 : 1000 : 0"
       inkscape:vp_x="0 : 0.5 : 1"
       sodipodi:type="inkscape:persp3d" />
    <filter
       color-interpolation-filters="sRGB"
       inkscape:collect="always"
       id="filter3671-2"
       x="-0.46196231"
       width="1.9239246"
       y="-0.1083222"
       height="1.2166444">
      <feGaussianBlur
         inkscape:collect="always"
         stdDeviation="6.6109096"
         id="feGaussianBlur3673-7" />
    </filter>
    <inkscape:perspective
       id="perspective3770"
       inkscape:persp3d-origin="0.5 : 0.33333333 : 1"
       inkscape:vp_z="1 : 0.5 : 1"
       inkscape:vp_y="0 : 1000 : 0"
       inkscape:vp_x="0 : 0.5 : 1"
       sodipodi:type="inkscape:persp3d" />
    <filter
       inkscape:collect="always"
       id="filter3788"
       x="-0.23089892"
       width="1.4617978"
       y="-0.17516869"
       height="1.3503374"
       color-interpolation-filters="sRGB">
      <feGaussianBlur
         inkscape:collect="always"
         stdDeviation="10.690554"
         id="feGaussianBlur3790" />
    </filter>
  </defs>
  <sodipodi:namedview
     id="base"
     pagecolor="#ffffff"
     bordercolor="#666666"
     borderopacity="1.0"
     inkscape:pageopacity="0.0"
     inkscape:pageshadow="2"
     inkscape:zoom="0.7"
     inkscape:cx="-210.91848"
     inkscape:cy="151.06352"
     inkscape:document-units="px"
     inkscape:current-layer="layer1"
     showgrid="false"
     inkscape:window-width="1206"
     inkscape:window-height="780"
     inkscape:window-x="124"
     inkscape:window-y="97"
     inkscape:window-maximized="0" />
  <metadata
     id="metadata7">
    <rdf:RDF>
      <cc:Work
         rdf:about="">
        <dc:format>image/svg+xml</dc:format>
        <dc:type
           rdf:resource="http://purl.org/dc/dcmitype/StillImage" />
        <dc:title></dc:title>
      </cc:Work>
    </rdf:RDF>
  </metadata>
  <g
     inkscape:label="Calque 1"
     inkscape:groupmode="layer"
     id="layer1"
     transform="translate(-202.95762,-424.28034)">
    <path
       sodipodi:type="arc"
       style="opacity:0.79518074;fill:url(#radialGradient3596);fill-opacity:1;fill-rule:nonzero;stroke:none"
       id="path2816"
       sodipodi:cx="332.85715"
       sodipodi:cy="533.79077"
       sodipodi:rx="135.71428"
       sodipodi:ry="132.85715"
       d="m 468.57143,533.79077 c 0,73.37498 -60.76136,132.85715 -135.71428,132.85715 -74.95293,0 -135.71428,-59.48217 -135.71428,-132.85715 0,-73.37497 60.76135,-132.85715 135.71428,-132.85715 74.95292,0 135.71428,59.48218 135.71428,132.85715 z"
       transform="matrix(0.92105268,0,0,0.94086018,21.37865,47.057854)" />
    <g
       id="g3792"
       transform="translate(317.14286,202.85714)">
      <path
         sodipodi:nodetypes="cczzzcsccc"
         id="rect3661-6"
         d="m -6.9079576,273.1935 c 7.49331001,0 15.152293,1.14043 25.7588946,9.80928 L 73.399174,326.838 c 0,0 13.854988,11.21716 13.637059,21.61187 -0.217929,10.39471 -12.12183,19.08649 -12.12183,19.08649 l -60.104077,45.35045 c -11.6167536,6.64855 -12.2046636,6.77882 -21.7182836,6.77882 -9.5136104,0 -17.1725904,-10.2318 -17.1725904,-22.94126 l 0,-100.58961 c 0,-12.70946 7.65898,-22.94126 17.1725904,-22.94126 z"
         style="fill:none;stroke:#000000;stroke-width:3;stroke-miterlimit:4;stroke-opacity:1" />
      <path
         sodipodi:nodetypes="cczzzcsccc"
         id="rect3661-6-9"
         d="m -8.6706137,273.18713 c 7.49331,0 15.15229,1.14043 25.7588897,9.80928 l 54.54824,43.83522 c 0,0 13.85499,11.21716 13.63706,21.61187 -0.21793,10.39471 -12.12183,19.08649 -12.12183,19.08649 l -60.10408,45.35045 c -11.6167497,6.64855 -12.20465973,6.77882 -21.7182797,6.77882 -9.5136103,0 -17.1725903,-10.2318 -17.1725903,-22.94126 l 0,-100.58961 c 0,-12.70946 7.65898,-22.94126 17.1725903,-22.94126 z"
         style="opacity:0.40562247;fill:#000000;fill-opacity:1;stroke:none;filter:url(#filter3788)" />
    </g>
  </g>
</svg>
