<?xml version="1.0" encoding="UTF-8" standalone="no"?>
<!-- Created with Inkscape (http://www.inkscape.org/) -->

<svg
   xmlns:dc="http://purl.org/dc/elements/1.1/"
   xmlns:cc="http://creativecommons.org/ns#"
   xmlns:rdf="http://www.w3.org/1999/02/22-rdf-syntax-ns#"
   xmlns:svg="http://www.w3.org/2000/svg"
   xmlns="http://www.w3.org/2000/svg"
   xmlns:xlink="http://www.w3.org/1999/xlink"
   xmlns:sodipodi="http://sodipodi.sourceforge.net/DTD/sodipodi-0.dtd"
   xmlns:inkscape="http://www.inkscape.org/namespaces/inkscape"
   width="250"
   height="250"
   id="svg2"
   version="1.1"
   inkscape:version="0.47 r22583"
   sodipodi:docname="qemu-start.svg"
   inkscape:export-filename="/home/georgesk/developpement/freeduc-usb/freeduc-usb-1.0/images/qemu-stop.png"
   inkscape:export-xdpi="23.040001"
   inkscape:export-ydpi="23.040001">
  <defs
     id="defs4">
    <linearGradient
       id="linearGradient3590">
      <stop
         style="stop-color:#ffffff;stop-opacity:1;"
         offset="0"
         id="stop3592" />
      <stop
         style="stop-color:#45d400;stop-opacity:1;"
         offset="1"
         id="stop3594" />
    </linearGradient>
    <inkscape:perspective
       sodipodi:type="inkscape:persp3d"
       inkscape:vp_x="0 : 526.18109 : 1"
       inkscape:vp_y="0 : 1000 : 0"
       inkscape:vp_z="744.09448 : 526.18109 : 1"
       inkscape:persp3d-origin="372.04724 : 350.78739 : 1"
       id="perspective10" />
    <radialGradient
       inkscape:collect="always"
       xlink:href="#linearGradient3590"
       id="radialGradient3596"
       cx="373.18369"
       cy="464.77036"
       fx="373.18369"
       fy="464.77036"
       r="135.71428"
       gradientTransform="matrix(1,0,0,0.97894745,0,11.237658)"
       gradientUnits="userSpaceOnUse" />
  </defs>
  <sodipodi:namedview
     id="base"
     pagecolor="#ffffff"
     bordercolor="#666666"
     borderopacity="1.0"
     inkscape:pageopacity="0.0"
     inkscape:pageshadow="2"
     inkscape:zoom="0.98994949"
     inkscape:cx="-36.504424"
     inkscape:cy="257.85114"
     inkscape:document-units="px"
     inkscape:current-layer="layer1"
     showgrid="false"
     inkscape:window-width="1206"
     inkscape:window-height="780"
     inkscape:window-x="124"
     inkscape:window-y="97"
     inkscape:window-maximized="0" />
  <metadata
     id="metadata7">
    <rdf:RDF>
      <cc:Work
         rdf:about="">
        <dc:format>image/svg+xml</dc:format>
        <dc:type
           rdf:resource="http://purl.org/dc/dcmitype/StillImage" />
        <dc:title></dc:title>
      </cc:Work>
    </rdf:RDF>
  </metadata>
  <g
     inkscape:label="Calque 1"
     inkscape:groupmode="layer"
     id="layer1"
     transform="translate(-197.14287,-416.64792)">
    <path
       sodipodi:type="arc"
       style="opacity:0.79518074;fill:url(#radialGradient3596);fill-opacity:1;fill-rule:nonzero;stroke:none"
       id="path2816"
       sodipodi:cx="332.85715"
       sodipodi:cy="533.79077"
       sodipodi:rx="135.71428"
       sodipodi:ry="132.85715"
       d="m 468.57143,533.79077 c 0,73.37498 -60.76136,132.85715 -135.71428,132.85715 -74.95293,0 -135.71428,-59.48217 -135.71428,-132.85715 0,-73.37497 60.76135,-132.85715 135.71428,-132.85715 74.95292,0 135.71428,59.48218 135.71428,132.85715 z"
       transform="matrix(0.92105268,0,0,0.94086018,15.563902,39.425435)" />
  </g>
</svg>
